Newz Raviyan - Stats 330
…
'data.frame':   4000 obs. of  3 variables:
 $ dwhf   : int  1 1 1 0 1 0 0 0 0 0 ...
 $ ejf_per: int  40 12 36 31 15 45 30 39 33 24 ...
 $ trtmt1 : int  0 0 0 1 0 0 1 1 0 1 ...

q1$trtmt1=factor(q1$trtmt1,levels = c(0,1),labels=c("Placebo","Digoxin"))

tmp=q1 %>% group_by(trtmt1,ejf_per) %>% summarise(prop = mean(dwhf),event=sum(dwhf), n = n())

`summarise()` has grouped output by 'trtmt1'. You can override using the
`.groups` argument.

print(tmp)

# A tibble: 82 × 5
# Groups:   trtmt1 [2]
   trtmt1  ejf_per  prop event     n
   <fct>     <int> <dbl> <int> <int>
 1 Placebo       3 1         1     1
 2 Placebo       4 1         1     1
 3 Placebo       5 1         1     1
 4 Placebo       8 0.714     5     7
 5 Placebo       9 0.75      3     4
 6 Placebo      10 0.667    12    18
 7 Placebo      11 0.833    10    12
 8 Placebo      12 0.526    10    19
 9 Placebo      13 0.731    19    26
10 Placebo      14 0.731    19    26
# ℹ 72 more rows
…
